<svg width="16" height="16" viewBox="0 0 16 16" fill="none" xmlns="http://www.w3.org/2000/svg">
<mask id="mask0" mask-type="alpha" maskUnits="userSpaceOnUse" x="2" y="0" width="12" height="16">
<path fill-rule="evenodd" clip-rule="evenodd" d="M3.25366 3H8.74597C9.00443 3 9.23058 2.79 9.23058 2.55V1.2C9.23058 0.54 8.64904 0 7.93827 0H4.06135C3.35058 0 2.76904 0.54 2.76904 1.2V2.55C2.76904 2.79 2.9952 3 3.25366 3ZM10.9091 1H10.2273C10.0091 1 9.81818 1.23864 9.81818 1.51136L9.77622 2.63636C9.77622 3.38636 9.28532 4 8.68532 4H3.23077C2.63077 4 2.13986 3.38636 2.13986 2.63636L2.18182 1.51136C2.18182 1.23864 1.99091 1 1.77273 1H1.09091C0.490909 1 0 1.61364 0 2.36364V14.6364C0 15.3864 0.490909 16 1.09091 16H10.9091C11.5091 16 12 15.3864 12 14.6364V2.36364C12 1.61364 11.5091 1 10.9091 1ZM6 6C4.3375 6 3 7.3375 3 9C3 10.6625 4.3375 12 6 12C7.6625 12 9 10.6625 9 9C9 7.3375 7.6625 6 6 6ZM7.6751 8.24961L5.7626 10.1871C5.6876 10.2621 5.5626 10.2621 5.4876 10.1871L4.4376 9.12461C4.3626 9.04961 4.3626 8.92461 4.4376 8.84961L4.7126 8.57461C4.7876 8.49961 4.9126 8.49961 4.9876 8.57461L5.5376 9.13711C5.5876 9.18711 5.6751 9.18711 5.7251 9.13711L7.1251 7.68711C7.2001 7.61211 7.3251 7.61211 7.4001 7.68711L7.6751 7.96211C7.7626 8.03711 7.7626 8.16211 7.6751 8.24961Z" transform="translate(2)" fill="#A8AAB7"/>
</mask>
<g mask="url(#mask0)">
<path fill-rule="evenodd" clip-rule="evenodd" d="M0 0H16V16H0V0Z" fill="#623D96"/>
</g>
</svg>
