<svg width="16" height="16" viewBox="0 0 16 16" fill="none" xmlns="http://www.w3.org/2000/svg">
<mask id="mask0" mask-type="alpha" maskUnits="userSpaceOnUse" x="2" y="1" width="13" height="14">
<path fill-rule="evenodd" clip-rule="evenodd" d="M12.2901 8.721L11.2287 7.83169C11.286 7.51612 11.3147 7.17188 11.3147 6.85631C11.3147 6.54075 11.286 6.1965 11.2287 5.88094L12.2901 4.99162C12.6343 4.70475 12.7491 4.18838 12.5196 3.78675L12.0606 2.95481C11.8885 2.66794 11.5729 2.49581 11.2287 2.49581C11.1139 2.49581 10.9992 2.5245 10.9131 2.55319L9.62216 3.04088C9.10578 2.58188 8.53203 2.26631 7.95828 2.0655L7.72878 0.717188C7.64272 0.258188 7.2411 0 6.7821 0H5.8641C5.4051 0 5.00347 0.258188 4.91741 0.717188L4.68791 2.03681C4.05678 2.23763 3.51172 2.58187 2.99535 3.01219L1.7331 2.5245C1.61835 2.49581 1.53228 2.46713 1.41753 2.46713C1.07328 2.46713 0.757722 2.63925 0.585597 2.92613L0.126597 3.72938C-0.102903 4.131 -0.0168409 4.64738 0.356097 4.93425L1.41753 5.82356C1.36016 6.13913 1.33147 6.48338 1.33147 6.79894C1.33147 7.14319 1.36016 7.45875 1.41753 7.77431L0.356097 8.66363C0.0118466 8.9505 -0.102903 9.46688 0.126597 9.8685L0.585597 10.7291C0.757722 11.016 1.07328 11.1881 1.41753 11.1881C1.53228 11.1881 1.64703 11.1594 1.7331 11.1307L3.02403 10.6431C3.54041 11.1021 4.11416 11.4176 4.68791 11.6184L4.91741 12.9954C5.00347 13.4544 5.37641 13.77 5.8641 13.77H6.7821C7.2411 13.77 7.64272 13.4257 7.72878 12.9668L7.95828 11.5898C8.6181 11.3603 9.19185 11.016 9.70822 10.5283L10.9131 11.016C11.0278 11.0447 11.1426 11.0734 11.2573 11.0734C11.6016 11.0734 11.9172 10.9012 12.0893 10.6144L12.5196 9.8685C12.7491 9.52425 12.6343 9.00788 12.2901 8.721ZM6.35155 10.0691C4.6303 10.0691 3.22461 8.66337 3.22461 6.91344C3.22461 5.1635 4.60161 3.75781 6.35155 3.75781C8.10148 3.75781 9.47848 5.1635 9.47848 6.91344C9.47848 8.66337 8.0728 10.0691 6.35155 10.0691Z" transform="translate(2 1)" fill="white"/>
</mask>
<g mask="url(#mask0)">
<path fill-rule="evenodd" clip-rule="evenodd" d="M0 0H16V16H0V0Z" fill="#623D96"/>
</g>
</svg>
