<svg width="16" height="16" viewBox="0 0 16 16" fill="none" xmlns="http://www.w3.org/2000/svg">
<mask id="mask0" mask-type="alpha" maskUnits="userSpaceOnUse" x="0" y="1" width="17" height="15">
<path fill-rule="evenodd" clip-rule="evenodd" d="M15.5317 11.1904H14.1268V9.76184C14.1268 9.50787 13.9083 9.28564 13.6585 9.28564H12.722C12.4722 9.28564 12.2537 9.50787 12.2537 9.76184V11.1904H10.8488C10.599 11.1904 10.3805 11.4126 10.3805 11.6666V12.619C10.3805 12.8729 10.599 13.0952 10.8488 13.0952H12.2537V14.5237C12.2537 14.7777 12.4722 14.9999 12.722 14.9999H13.6585C13.9083 14.9999 14.1268 14.7777 14.1268 14.5237V13.0952H15.5317C15.7815 13.0952 16 12.8729 16 12.619V11.6666C16 11.4126 15.7815 11.1904 15.5317 11.1904ZM11.7247 8.66953C11.7247 8.41733 11.9811 8.19665 12.2743 8.19665H13.1902V1.26102C13.1902 0.56746 12.5307 0 11.7247 0H1.46558C0.659512 0 0 0.56746 0 1.26102V10.0882C0 10.7817 0.659512 11.3492 1.46558 11.3492H9.52629V10.5611C9.52629 10.3089 9.78277 10.0882 10.0759 10.0882H11.7247V8.66953ZM10.7776 8.25394H2.46463C2.12064 8.25394 1.91998 7.88394 2.09197 7.59932L4.61454 3.24464C4.7292 3.04541 4.98719 3.04541 5.10185 3.24464L6.62112 5.83468C6.73579 6.00545 6.99377 6.03391 7.10844 5.86314L8.34105 4.0985C8.45572 3.92773 8.71371 3.92773 8.82837 4.0985L11.0929 7.68471C11.2649 7.94086 11.0929 8.25394 10.7776 8.25394ZM10.9268 3.41273C10.24 3.41273 9.67804 2.8413 9.67804 2.14289C9.67804 1.44448 10.24 0.873047 10.9268 0.873047C11.6136 0.873047 12.1756 1.44448 12.1756 2.14289C12.1756 2.8413 11.6136 3.41273 10.9268 3.41273Z" transform="translate(0 1)" fill="white"/>
</mask>
<g mask="url(#mask0)">
<g filter="url(#filter0_d)">
<path fill-rule="evenodd" clip-rule="evenodd" d="M0 0H16V16H0V0Z" fill="#007FFF"/>
</g>
</g>
<defs>
<filter id="filter0_d" x="-9" y="-5" width="34" height="34" filterUnits="userSpaceOnUse" color-interpolation-filters="sRGB">
<feFlood flood-opacity="0" result="BackgroundImageFix"/>
<feColorMatrix in="SourceAlpha" type="matrix" values="0 0 0 0 0 0 0 0 0 0 0 0 0 0 0 0 0 0 255 0"/>
<feOffset dy="4"/>
<feGaussianBlur stdDeviation="4.5"/>
<feColorMatrix type="matrix" values="0 0 0 0 0 0 0 0 0 0 0 0 0 0 0 0 0 0 0.140087 0"/>
<feBlend mode="normal" in2="BackgroundImageFix" result="effect1_dropShadow"/>
<feBlend mode="normal" in="SourceGraphic" in2="effect1_dropShadow" result="shape"/>
</filter>
</defs>
</svg>
