<svg width="16" height="16" viewBox="0 0 16 16" fill="none" xmlns="http://www.w3.org/2000/svg">
    <mask id="mask0" mask-type="alpha" maskUnits="userSpaceOnUse" x="4" y="1" width="8" height="14">
        <path fill-rule="evenodd" clip-rule="evenodd" d="M5.49231 1.56923L11.8615 7.87692C12.0462 8.06154 12.0462 8.36923 11.8615 8.55385L5.49231 14.8615C5.30769 15.0462 5 15.0462 4.81538 14.8615L4.13846 14.1846C3.95385 14 3.95385 13.6923 4.13846 13.5077L9.15385 8.55385C9.33846 8.36923 9.33846 8.06154 9.15385 7.87692L4.16923 2.92308C3.98462 2.73846 3.98462 2.43077 4.16923 2.24615L4.84615 1.56923C5.03077 1.41539 5.30769 1.41539 5.49231 1.56923Z" fill="white"/>
    </mask>
    <g mask="url(#mask0)">
        <path fill-rule="evenodd" clip-rule="evenodd" d="M0 16L0 0L16 0V16H0Z" fill="#4B4C6E"/>
    </g>
</svg>

