<svg width="16" height="16" viewBox="0 0 16 16" fill="none" xmlns="http://www.w3.org/2000/svg">
    <mask id="mask0" mask-type="alpha" maskUnits="userSpaceOnUse" x="4" y="1" width="8" height="14">
        <path fill-rule="evenodd" clip-rule="evenodd" d="M10.5077 14.4308L4.13846 8.12308C3.95385 7.93846 3.95385 7.63077 4.13846 7.44615L10.5077 1.13846C10.6923 0.953846 11 0.953846 11.1846 1.13846L11.8615 1.81538C12.0462 2 12.0462 2.30769 11.8615 2.49231L6.84615 7.44615C6.66154 7.63077 6.66154 7.93846 6.84615 8.12308L11.8308 13.0769C12.0154 13.2615 12.0154 13.5692 11.8308 13.7538L11.1538 14.4308C10.9692 14.5846 10.6923 14.5846 10.5077 14.4308Z" fill="white"/>
    </mask>
    <g mask="url(#mask0)">
        <path fill-rule="evenodd" clip-rule="evenodd" d="M16 0L16 16L0 16L0 0L16 0Z" fill="#4B4C6E"/>
    </g>
</svg>
