<svg width="16" height="16" viewBox="0 0 16 16" fill="none" xmlns="http://www.w3.org/2000/svg">
    <mask id="mask0" mask-type="alpha" maskUnits="userSpaceOnUse" x="0" y="0" width="17" height="17">
        <path d="M0 12.4286C0 11.8763 0.447715 11.4286 1 11.4286H3.57143C4.12371 11.4286 4.57143 11.8763 4.57143 12.4286V15C4.57143 15.5523 4.12371 16 3.57143 16H1C0.447715 16 0 15.5523 0 15V12.4286Z"
              fill="#623BBA"/>
        <path d="M0 6.71423C0 6.16195 0.447715 5.71423 1 5.71423H3.57143C4.12371 5.71423 4.57143 6.16195 4.57143 6.71423V9.28566C4.57143 9.83795 4.12371 10.2857 3.57143 10.2857H1C0.447715 10.2857 0 9.83795 0 9.28566V6.71423Z"
              fill="#623BBA"/>
        <path d="M0 1C0 0.447715 0.447715 0 1 0H3.57143C4.12371 0 4.57143 0.447715 4.57143 1V3.57143C4.57143 4.12371 4.12371 4.57143 3.57143 4.57143H1C0.447715 4.57143 0 4.12371 0 3.57143V1Z"
              fill="#623BBA"/>
        <path d="M5.71429 12.4286C5.71429 11.8763 6.16201 11.4286 6.71429 11.4286H9.28572C9.83801 11.4286 10.2857 11.8763 10.2857 12.4286V15C10.2857 15.5523 9.83801 16 9.28572 16H6.71429C6.16201 16 5.71429 15.5523 5.71429 15V12.4286Z"
              fill="#623BBA"/>
        <path d="M5.71429 6.71423C5.71429 6.16195 6.16201 5.71423 6.71429 5.71423H9.28572C9.83801 5.71423 10.2857 6.16195 10.2857 6.71423V9.28566C10.2857 9.83795 9.83801 10.2857 9.28572 10.2857H6.71429C6.16201 10.2857 5.71429 9.83795 5.71429 9.28566V6.71423Z"
              fill="#623BBA"/>
        <path d="M5.71429 1C5.71429 0.447715 6.16201 0 6.71429 0H9.28572C9.83801 0 10.2857 0.447715 10.2857 1V3.57143C10.2857 4.12371 9.83801 4.57143 9.28572 4.57143H6.71429C6.16201 4.57143 5.71429 4.12371 5.71429 3.57143V1Z"
              fill="#623BBA"/>
        <path d="M11.4286 12.4286C11.4286 11.8763 11.8763 11.4286 12.4286 11.4286H15C15.5523 11.4286 16 11.8763 16 12.4286V15C16 15.5523 15.5523 16 15 16H12.4286C11.8763 16 11.4286 15.5523 11.4286 15V12.4286Z"
              fill="#623BBA"/>
        <path d="M11.4286 6.71423C11.4286 6.16195 11.8763 5.71423 12.4286 5.71423H15C15.5523 5.71423 16 6.16195 16 6.71423V9.28566C16 9.83795 15.5523 10.2857 15 10.2857H12.4286C11.8763 10.2857 11.4286 9.83795 11.4286 9.28566V6.71423Z"
              fill="#623BBA"/>
        <path d="M11.4286 1C11.4286 0.447715 11.8763 0 12.4286 0H15C15.5523 0 16 0.447715 16 1V3.57143C16 4.12371 15.5523 4.57143 15 4.57143H12.4286C11.8763 4.57143 11.4286 4.12371 11.4286 3.57143V1Z"
              fill="#623BBA"/>
    </mask>
    <g mask="url(#mask0)">
        <g filter="url(#filter0_d)">
            <path fill-rule="evenodd" clip-rule="evenodd" d="M0 0H16V16H0V0Z" fill="#4B4C6E"/>
        </g>
    </g>
    <defs>
        <filter id="filter0_d" x="-9" y="-5" width="34" height="34" filterUnits="userSpaceOnUse"
                color-interpolation-filters="sRGB">
            <feFlood flood-opacity="0" result="BackgroundImageFix"/>
            <feColorMatrix in="SourceAlpha" type="matrix" values="0 0 0 0 0 0 0 0 0 0 0 0 0 0 0 0 0 0 255 0"/>
            <feOffset dy="4"/>
            <feGaussianBlur stdDeviation="4.5"/>
            <feColorMatrix type="matrix" values="0 0 0 0 0 0 0 0 0 0 0 0 0 0 0 0 0 0 0.140087 0"/>
            <feBlend mode="normal" in2="BackgroundImageFix" result="effect1_dropShadow"/>
            <feBlend mode="normal" in="SourceGraphic" in2="effect1_dropShadow" result="shape"/>
        </filter>
    </defs>
</svg>
