<svg width="30" height="30" viewBox="0 0 30 30" fill="none" xmlns="http://www.w3.org/2000/svg">
    <mask id="mask0" mask-type="alpha" maskUnits="userSpaceOnUse" x="1" y="1" width="28" height="28">
        <path fill-rule="evenodd" clip-rule="evenodd" d="M1.875 15C1.875 7.72656 7.72656 1.875 15 1.875C22.2734 1.875 28.125 7.72656 28.125 15C28.125 22.2734 22.2734 28.125 15 28.125C7.72656 28.125 1.875 22.2734 1.875 15ZM5.15621 15C5.15621 20.4688 9.53121 24.8438 15 24.8438C20.4687 24.8438 24.8437 20.4688 24.8437 15C24.8437 9.53126 20.4687 5.15626 15 5.15626C9.53121 5.15626 5.15621 9.53126 5.15621 15ZM10.9615 9.80769V20.1923H13.8461V9.80769H10.9615ZM16.1538 20.1923V9.80769H19.0385V20.1923H16.1538Z" fill="white"/>
    </mask>
    <g mask="url(#mask0)">
        <path fill-rule="evenodd" clip-rule="evenodd" d="M0 0H30V30H0V0Z" fill="#4440CA"/>
    </g>
</svg>