<svg width="16" height="16" viewBox="0 0 16 16" fill="none" xmlns="http://www.w3.org/2000/svg">
<mask id="mask0" mask-type="alpha" maskUnits="userSpaceOnUse" x="1" y="1" width="14" height="14">
<path fill-rule="evenodd" clip-rule="evenodd" d="M7 0C3.15 0 0 3.15 0 7C0 10.85 3.15 14 7 14C10.85 14 14 10.85 14 7C14 3.15 10.85 0 7 0ZM7 12.25C4.1125 12.25 1.75 9.8875 1.75 7C1.75 4.1125 4.1125 1.75 7 1.75C9.8875 1.75 12.25 4.1125 12.25 7C12.25 9.8875 9.8875 12.25 7 12.25ZM7.99167 7.05833C7.90417 6.97083 7.875 6.85417 7.875 6.7375V3.9375C7.875 3.70417 7.67083 3.5 7.4375 3.5H6.5625C6.32917 3.5 6.125 3.70417 6.125 3.9375V7.46667C6.125 7.58333 6.18333 7.7 6.24167 7.7875L8.4 9.94583C8.575 10.1208 8.8375 10.1208 9.0125 9.94583L9.625 9.33333C9.8 9.15833 9.8 8.89583 9.625 8.72083L7.99167 7.05833Z" transform="translate(1 1)" fill="white"/>
</mask>
<g mask="url(#mask0)">
<path fill-rule="evenodd" clip-rule="evenodd" d="M0 0H16V16H0V0Z" fill="#F7981C"/>
</g>
</svg>
