<svg width="18" height="12" viewBox="0 0 18 12" fill="none" xmlns="http://www.w3.org/2000/svg">
<g filter="url(#filter0_i)">
<mask id="mask0" mask-type="alpha" maskUnits="userSpaceOnUse" x="0" y="0" width="18" height="12">
<path d="M0.393311 0H5.66357e-06L0 8.29493H0.413603H2.75735H5.51471V9.95392H8.27206V8.28667V5.48293V4.42396H5.51471V5.52995H2.75735V2.76498H8.27163L8.27206 0H2.75693H0.393311Z" fill="#3C4457"/>
<path d="M0.393311 0H5.66357e-06L0 8.29493H0.413603H2.75735H5.51471V11.6129H8.27206V8.28667V5.48293V4.42396H5.51471V5.52995H2.75735V2.76498H8.27163L8.27206 0H2.75693H0.393311Z" transform="translate(17.6471) scale(-1 1)" fill="#3C4457"/>
</mask>
<g mask="url(#mask0)">
<path fill-rule="evenodd" clip-rule="evenodd" d="M0 0H17.6471V11.6129H0V0Z" transform="translate(0 11.6128) scale(1 -1)" fill="#F85359"/>
</g>
</g>
<defs>
<filter id="filter0_i" x="0" y="0" width="17.6471" height="12.6129" filterUnits="userSpaceOnUse" color-interpolation-filters="sRGB">
<feFlood flood-opacity="0" result="BackgroundImageFix"/>
<feBlend mode="normal" in="SourceGraphic" in2="BackgroundImageFix" result="shape"/>
<feColorMatrix in="SourceAlpha" type="matrix" values="0 0 0 0 0 0 0 0 0 0 0 0 0 0 0 0 0 0 255 0" result="hardAlpha"/>
<feOffset dy="1"/>
<feGaussianBlur stdDeviation="0.5"/>
<feComposite in2="hardAlpha" operator="arithmetic" k2="-1" k3="1"/>
<feColorMatrix type="matrix" values="0 0 0 0 0 0 0 0 0 0 0 0 0 0 0 0 0 0 0.25 0"/>
<feBlend mode="normal" in2="shape" result="effect1_innerShadow"/>
</filter>
</defs>
</svg>
