<svg width="16" height="16" viewBox="0 0 16 16" fill="none" xmlns="http://www.w3.org/2000/svg">
    <mask id="mask0" mask-type="alpha" maskUnits="userSpaceOnUse" x="1" y="2" width="14" height="12">
        <circle cx="2" cy="2" r="1.5" transform="translate(2 2)" stroke="#A8AAB7"/>
        <path d="M0 0.5C0 0.223858 0.223858 0 0.5 0H2V2H0.5C0.223858 2 0 1.77614 0 1.5V0.5Z" transform="translate(1 3)"
              fill="#A8AAB7"/>
        <path d="M0 0H9.5C9.77614 0 10 0.223858 10 0.5V1.5C10 1.77614 9.77614 2 9.5 2H0V0Z" transform="translate(5 3)"
              fill="#A8AAB7"/>
        <circle cx="2" cy="2" r="1.5" transform="translate(3 10)" stroke="#A8AAB7"/>
        <path d="M0 0.5C0 0.223858 0.223858 0 0.5 0H3V2H0.5C0.223858 2 0 1.77614 0 1.5V0.5Z" transform="translate(1 11)"
              fill="#A8AAB7"/>
        <path d="M0 0H8.5C8.77614 0 9 0.223858 9 0.5V1.5C9 1.77614 8.77614 2 8.5 2H0V0Z" transform="translate(6 11)"
              fill="#A8AAB7"/>
        <circle cx="2" cy="2" r="1.5" transform="translate(8 6)" stroke="#A8AAB7"/>
        <path d="M0 0.5C0 0.223858 0.223858 0 0.5 0H8V2H0.5C0.223858 2 0 1.77614 0 1.5V0.5Z" transform="translate(1 7)"
              fill="#A8AAB7"/>
        <path d="M0 0H3.5C3.77614 0 4 0.223858 4 0.5V1.5C4 1.77614 3.77614 2 3.5 2H0V0Z" transform="translate(11 7)"
              fill="#A8AAB7"/>
    </mask>
    <g mask="url(#mask0)">
        <path fill-rule="evenodd" clip-rule="evenodd" d="M0 0H16V16H0V0Z" fill="#623D96"/>
    </g>
</svg>
