<svg width="16" height="16" viewBox="0 0 16 16" fill="none" xmlns="http://www.w3.org/2000/svg">
<mask id="mask0" mask-type="alpha" maskUnits="userSpaceOnUse" x="1" y="0" width="14" height="16">
<path d="M5.99806 4.75333H7.51394V6.45756H8.51429V0.717414C8.51429 0.321231 8.19335 0 7.79716 0H0.717606C0.321423 0 -1.95751e-08 0.321231 -1.95751e-08 0.717414V15.2826C-1.95751e-08 15.6789 0.321391 16 0.717606 16H3.26465V11.3366H5.23767V7.43356C5.23767 7.00961 5.54964 6.65765 5.99784 6.52022V4.75336H5.99806V4.75333ZM5.99806 1.43496H7.51394V3.58732H5.99806V1.43496ZM2.54211 13.5367H1.02633V11.3844H2.54214V13.5367H2.54211ZM2.54211 10.3857H1.02633V8.23318H2.54214V10.3857H2.54211ZM2.54211 6.90569H1.02633V4.75333H2.54214V6.90569H2.54211ZM2.54211 3.58748H1.02633V1.43496H2.54214V3.58748H2.54211ZM5.0702 10.3857H3.55468V8.23318H5.0702V10.3857ZM5.0702 6.90569H3.55468V4.75333H5.0702V6.90569ZM5.0702 3.58748H3.55468V1.43496H5.0702V3.58748ZM12.5449 7.03148H6.54874C6.2131 7.03148 5.94098 7.21147 5.94098 7.43356V15.5977C5.94098 15.8201 6.2131 16 6.54874 16H8.70614V13.386H10.4384V16H12.5449C12.8805 16 13.1527 15.8201 13.1527 15.5977V7.43356C13.1526 7.21147 12.8804 7.03148 12.5449 7.03148ZM8.09383 14.6191H6.81009V13.4128H8.09383V14.6191ZM8.09383 12.853H6.81009V11.6465H8.09383V12.853ZM8.09383 10.9024H6.81009V9.69607H8.09383V10.9024ZM8.09383 9.04225H6.81009V7.83574H8.09383V9.04225ZM10.2356 12.853H8.95181V11.6465H10.2356V12.853ZM10.2356 10.9024H8.95181V9.69607H10.2356V10.9024ZM10.2356 9.04225H8.95181V7.83574H10.2356V9.04225ZM12.3053 14.6461H11.0215V13.4397H12.3053V14.6461ZM12.3053 12.853H11.0215V11.6465H12.3053V12.853ZM12.3053 10.9024H11.0215V9.69607H12.3053V10.9024ZM12.3053 9.04225H11.0215V7.83574H12.3053V9.04225Z" transform="translate(1)" fill="black"/>
</mask>
<g mask="url(#mask0)">
<path fill-rule="evenodd" clip-rule="evenodd" d="M0 0H16V16H0V0Z" fill="#623D96"/>
</g>
</svg>
