<svg width="16" height="16" viewBox="0 0 16 16" fill="none" xmlns="http://www.w3.org/2000/svg">
<mask id="mask0" mask-type="alpha" maskUnits="userSpaceOnUse" x="2" y="1" width="12" height="14">
<path fill-rule="evenodd" clip-rule="evenodd" d="M6.00063 0C7.60144 1.50488 9.49496 2.1875 11.9672 2.1875C11.9672 2.56348 11.9749 2.95605 11.9829 3.35938C12.0578 7.15332 12.1523 11.9375 6.00063 14C-0.152298 11.9375 -0.0578153 7.15332 0.0171054 3.35938C0.0250705 2.95605 0.0328067 2.56348 0.0328067 2.1875C2.50337 2.1875 4.39854 1.50488 6.00063 0ZM3.51752 7.16113L5.50554 9.08301L8.48236 6.20605L7.59224 5.3457L5.50554 7.3623L4.40765 6.30078L3.51752 7.16113Z" transform="translate(2 1)" fill="#A8AAB7"/>
</mask>
<g mask="url(#mask0)">
<path fill-rule="evenodd" clip-rule="evenodd" d="M0 0H16V16H0V0Z" fill="#09C199"/>
</g>
</svg>
