<svg xmlns="http://www.w3.org/2000/svg" viewBox="0 0 74 58">
    <defs>
        <style>.a{fill:#231f20;}.b{fill:#ff5f00;}.c{fill:#eb001b;}.d{fill:#f79e1b;}</style>
    </defs>
    <title>mastercard</title>
    <path class="a"
          d="M14.48,57.29V53.58a2.2,2.2,0,0,0-2-2.35h-.28a2.29,2.29,0,0,0-2.08,1.05,2.17,2.17,0,0,0-2-1.05,2,2,0,0,0-1.73.88v-.73H5.11v5.91H6.4V54a1.38,1.38,0,0,1,1.18-1.56h.26c.85,0,1.29.56,1.29,1.56v3.29h1.3V54a1.39,1.39,0,0,1,1.2-1.56h.25c.88,0,1.3.56,1.3,1.56v3.29Zm19.2-5.91H31.57V49.59h-1.3v1.79H29.09v1.17h1.2v2.72c0,1.37.53,2.19,2.05,2.19A3,3,0,0,0,34,57l-.37-1.1a2.37,2.37,0,0,1-1.14.33c-.62,0-.85-.4-.85-1V52.55h2.1Zm11-.15a1.74,1.74,0,0,0-1.56.87v-.72H41.81v5.91H43.1V54c0-1,.42-1.52,1.24-1.52a2.1,2.1,0,0,1,.8.15l.4-1.24a2.75,2.75,0,0,0-.91-.16Zm-16.58.62a4.42,4.42,0,0,0-2.41-.62c-1.5,0-2.47.72-2.47,1.89,0,1,.72,1.56,2,1.74l.62.09c.7.1,1,.28,1,.62s-.47.72-1.35.72a3.15,3.15,0,0,1-2-.62l-.62,1a4.26,4.26,0,0,0,2.56.77c1.71,0,2.69-.8,2.69-1.93s-.78-1.58-2.06-1.77l-.62-.09c-.56-.07-1-.19-1-.58s.42-.69,1.12-.69a3.81,3.81,0,0,1,1.85.51Zm34.43-.62a1.74,1.74,0,0,0-1.56.87v-.72H59.67v5.91H61V54c0-1,.42-1.52,1.24-1.52a2.1,2.1,0,0,1,.8.15l.4-1.24a2.75,2.75,0,0,0-.91-.16ZM45.93,54.32a3,3,0,0,0,2.87,3.09h.28a3.09,3.09,0,0,0,2.13-.7l-.62-1A2.6,2.6,0,0,1,49,56.2a1.9,1.9,0,0,1,0-3.78,2.6,2.6,0,0,1,1.55.53l.62-1a3.09,3.09,0,0,0-2.13-.7A3,3,0,0,0,45.94,54q0,.14,0,.28Zm12,0V51.38H56.69v.72a2.24,2.24,0,0,0-1.85-.87,3.09,3.09,0,1,0,0,6.18,2.24,2.24,0,0,0,1.85-.87v.72H58Zm-4.78,0a1.77,1.77,0,1,1,0,.14S53.19,54.37,53.19,54.32ZM37.68,51.23a3.09,3.09,0,1,0,.09,6.18h0a3.59,3.59,0,0,0,2.45-.8l-.62-1a2.81,2.81,0,0,1-1.72.62,1.64,1.64,0,0,1-1.77-1.45H40.5v-.49a2.81,2.81,0,0,0-2.81-3.09Zm0,1.15a1.46,1.46,0,0,1,1.5,1.43H36.08a1.52,1.52,0,0,1,1.57-1.43Zm32.21,2V49H68.65v3.09a2.24,2.24,0,0,0-1.85-.87,3.09,3.09,0,0,0,0,6.18,2.24,2.24,0,0,0,1.85-.87v.72h1.24ZM72,56.43a.59.59,0,0,1,.56.35.57.57,0,0,1,0,.46.59.59,0,0,1-.32.31.58.58,0,0,1-.23,0,.62.62,0,0,1-.56-.36.58.58,0,0,1,0-.46.6.6,0,0,1,.57-.35Zm0,1a.44.44,0,0,0,.18,0,.46.46,0,0,0,.14-.1.45.45,0,0,0-.14-.72.44.44,0,0,0-.18,0,.46.46,0,0,0-.18,0,.45.45,0,0,0-.15.1.45.45,0,0,0,.35.75Zm0-.74a.25.25,0,0,1,.16,0,.15.15,0,0,1,.06.13.15.15,0,0,1,0,.11.22.22,0,0,1-.13.06l.18.2h-.14l-.17-.2h-.06v.2h-.12v-.54Zm-.14.11V57h.21a.06.06,0,0,0,0-.06.06.06,0,0,0,0-.06h-.07Zm-6.8-2.51a1.77,1.77,0,1,1,0,.14S65.13,54.38,65.13,54.33Zm-43.41,0v-3H20.44v.72a2.24,2.24,0,0,0-1.85-.87,3.09,3.09,0,0,0,0,6.18,2.24,2.24,0,0,0,1.85-.87v.72h1.29Zm-4.78,0a1.65,1.65,0,1,1,0,.15q0-.08,0-.15Z"/>
    <rect class="b" x="27.64" y="6.35" width="19.47" height="34.99"/>
    <path class="c" d="M28.88,23.85a22.21,22.21,0,0,1,8.5-17.5,22.25,22.25,0,1,0,0,35A22.21,22.21,0,0,1,28.88,23.85Z"/>
    <path class="d" d="M73.38,23.85a22.25,22.25,0,0,1-36,17.49,22.25,22.25,0,0,0,0-35,22.25,22.25,0,0,1,36,17.49Z"/>
    <path class="d"
          d="M71.25,37.63v-.72h.29v-.15H70.8v.15h.32v.72Zm1.43,0v-.87h-.22l-.26.62-.26-.62h-.2v.87h.16V37l.24.56h.17l.24-.56v.66Z"/>
</svg>