<svg class="fill" width="20" height="20" viewBox="0 0 20 20" fill="none"
     xmlns="http://www.w3.org/2000/svg">
    <mask id="mask0" mask-type="alpha" maskUnits="userSpaceOnUse" x="1" y="1" width="18"
          height="18">
        <path fill-rule="evenodd" clip-rule="evenodd"
              d="M9.27461 0.401423L10.9534 5.86872C11.0264 6.08742 11.2453 6.19676 11.4643 6.19676H16.9386C17.486 6.19676 17.705 6.92574 17.267 7.25377L12.8146 10.5342C12.6322 10.6799 12.5592 10.9351 12.6322 11.1538L14.7489 16.7669C14.8948 17.2772 14.3474 17.7145 13.9095 17.3865L9.12863 13.8145C8.94616 13.6687 8.69069 13.6687 8.47172 13.8145L3.65438 17.3865C3.21643 17.7145 2.63251 17.2772 2.81499 16.7669L4.85871 11.1538C4.9317 10.9351 4.85871 10.6799 4.67624 10.5342L0.223841 7.25377C-0.214099 6.92574 0.0413659 6.19676 0.552297 6.19676H6.02655C6.28202 6.19676 6.46449 6.12386 6.53748 5.86872L8.25275 0.364974C8.39873 -0.145307 9.12863 -0.108858 9.27461 0.401423V0.401423Z"
              transform="translate(1.25 1.25)" fill="white"/>
    </mask>
    <g mask="url(#mask0)">
        <path fill-rule="evenodd" clip-rule="evenodd" d="M0 0H20V20H0V0Z"
              fill="#007FFF"/>
    </g>
</svg>
