<svg xmlns="http://www.w3.org/2000/svg" viewBox="0 0 74 25">
    <defs>
        <style>.a{fill:#0066b2;}.b{fill:#f9a533;}</style>
    </defs>
    <title>visau</title>
    <polygon class="a" points="32.59 23.26 26.71 23.26 30.39 0.7 36.26 0.7 32.59 23.26"/>
    <path class="a"
          d="M21.77.7l-5.6,15.52-.66-3.34h0l-2-10.15a2.51,2.51,0,0,0-2.79-2H1.48l-.11.38A22,22,0,0,1,7.52,3.66l5.1,19.6h6.12L28.09.7Z"/>
    <path class="a"
          d="M68,23.26h5.39L68.67.7H64a2.7,2.7,0,0,0-2.71,1.68L52.48,23.26H58.6l1.23-3.35h7.47Zm-6.46-8L64.6,6.84l1.74,8.45Z"/>
    <path class="a"
          d="M52.93,6.12l.84-4.85a17,17,0,0,0-5.28-1c-2.92,0-9.84,1.27-9.84,7.47,0,5.83,8.13,5.9,8.13,9s-7.29,2.51-9.7.58l-.87,5.07a16.45,16.45,0,0,0,6.63,1.28c4,0,10.06-2.08,10.06-7.72,0-5.87-8.2-6.41-8.2-9S50.42,4.74,52.93,6.12Z"/>
    <path class="b"
          d="M15.51,12.88l-2-10.15a2.51,2.51,0,0,0-2.79-2H1.48l-.11.38A22.77,22.77,0,0,1,10.1,5.46,17.58,17.58,0,0,1,15.51,12.88Z"/>
</svg>