<svg width="30" height="30" viewBox="0 0 30 30" fill="none" xmlns="http://www.w3.org/2000/svg">
<mask id="mask0" mask-type="alpha" maskUnits="userSpaceOnUse" x="0" y="0" width="30" height="30">
<path fill-rule="evenodd" clip-rule="evenodd" d="M20.1448 6.87675H9.85524C8.21307 6.87675 6.87675 8.21298 6.87675 9.85524V20.1447C6.87675 21.7872 8.21307 23.1236 9.85524 23.1236H20.1448C21.7872 23.1236 23.1236 21.7872 23.1236 20.1447V9.85524C23.1236 8.21307 21.7872 6.87675 20.1448 6.87675ZM14.9998 20.3484C12.051 20.3484 9.65158 17.949 9.65158 14.9998C9.65158 12.051 12.051 9.65158 14.9998 9.65158C17.949 9.65158 20.3484 12.051 20.3484 14.9998C20.3484 17.949 17.949 20.3484 14.9998 20.3484ZM20.5205 10.7575C19.8223 10.7575 19.2546 10.1898 19.2546 9.4921C19.2546 8.79427 19.8223 8.22658 20.5205 8.22658C21.2182 8.22658 21.7859 8.79427 21.7859 9.4921C21.7859 10.1899 21.2182 10.7575 20.5205 10.7575Z" fill="black"/>
<path fill-rule="evenodd" clip-rule="evenodd" d="M14.9998 11.9119C13.2975 11.9119 11.9112 13.2975 11.9112 14.9998C11.9112 16.7028 13.2975 18.0888 14.9998 18.0888C16.7028 18.0888 18.0881 16.7028 18.0881 14.9998C18.0881 13.2975 16.7028 11.9119 14.9998 11.9119Z" fill="black"/>
<path fill-rule="evenodd" clip-rule="evenodd" d="M3 0C1.34315 0 0 1.34315 0 3V27C0 28.6569 1.34315 30 3 30H27C28.6569 30 30 28.6569 30 27V3C30 1.34315 28.6569 0 27 0H3ZM25.3833 20.1448C25.3833 23.0337 23.0337 25.3833 20.1448 25.3833H9.85525C6.96659 25.3833 4.6167 23.0337 4.6167 20.1448V9.85525C4.6167 6.96659 6.96659 4.6167 9.85525 4.6167H20.1448C23.0337 4.6167 25.3833 6.96659 25.3833 9.85525V20.1448Z" fill="black"/>
</mask>
<g mask="url(#mask0)">
<path fill-rule="evenodd" clip-rule="evenodd" d="M0 0H30V30H0V0Z" fill="white"/>
</g>
</svg>
